MASSM – Feature-based analysis of time series
…
# A tibble: 40 × 2
   length weight
    <dbl>  <dbl>
 1   50.3  100. 
 2   50.2  100. 
 3   48.7   99.2
 4   51.4  101. 
 5   49.3   99.5
 6   50.3   99.6
 7   51.1  102. 
 8   50.0  100. 
 9   51.3   99.9
10   50.7  102. 
# ℹ 30 more rows
…
